hardware/de0-mikrorechner/sim/ghdl/work/ProzessorTest.vcd
$date
  Fri Jan 16 18:16:19 2026
$end
$version
  GHDL v0
$end
$timescale
  1 fs
$end
$scope module standard $end
$upscope $end
$scope module std_logic_1164 $end
$upscope $end
$scope module numeric_std $end
$upscope $end
$scope module mempkg $end
$upscope $end
$scope module textio $end
$upscope $end
$scope module std_logic_textio $end
$upscope $end
$scope module opcodes $end
$upscope $end
$scope module funct_codes $end
$upscope $end
$scope module alu_opcode $end
$upscope $end
$scope module proctest $end
$var reg 1 ! clk $end
$var reg 1 " nrst $end
$var reg 1 # const1 $end
$var reg 1 $ dnwe $end
$var reg 10 % iaddr[9:0] $end
$var reg 10 & daddr[9:0] $end
$var reg 32 ' idatai[31:0] $end
$var reg 32 ( ddatai[31:0] $end
$var reg 32 ) dummy[31:0] $end
$var reg 32 * ddatao[31:0] $end
$comment ictrl is not handled $end
$comment dctrl is not handled $end
$scope module instmemi $end
$var reg 10 + addr[9:0] $end
$var reg 32 , data[31:0] $end
$comment fileio is not handled $end
$upscope $end
$scope module datamemi $end
$var reg 1 - nwe $end
$var reg 10 . addr[9:0] $end
$var reg 32 / datai[31:0] $end
$var reg 32 0 datao[31:0] $end
$comment fileio is not handled $end
$upscope $end
$scope module pipeproci $end
$var reg 1 1 clk $end
$var reg 1 2 rstn $end
$var reg 10 3 iaddr[9:0] $end
$var reg 32 4 idata[31:0] $end
$var reg 1 5 dnwe $end
$var reg 10 6 daddr[9:0] $end
$var reg 32 7 ddatai[31:0] $end
$var reg 32 8 ddatao[31:0] $end
$var reg 32 9 pc_if[31:0] $end
$var reg 1 : pc_src_if $end
$var reg 32 ; pc_id[31:0] $end
$var reg 32 < instruction_id[31:0] $end
$var reg 32 = write_data_id[31:0] $end
$var reg 1 > reg_we_id $end
$var reg 5 ? write_reg_id[4:0] $end
$var reg 32 @ imm_ex[31:0] $end
$var reg 32 A pc_ex[31:0] $end
$var reg 32 B alu_val_ex[31:0] $end
$var reg 32 C reg_val_ex[31:0] $end
$var reg 5 D alu_op_ex[4:0] $end
$var reg 5 E rt_ex[4:0] $end
$var reg 5 F rd_ex[4:0] $end
$var reg 1 G reg_dest_ex $end
$var reg 1 H reg_write_ex $end
$var reg 1 I alu_src_ex $end
$var reg 1 J pc_src_ex $end
$var reg 1 K mem_write_ex $end
$var reg 1 L mem_to_reg_ex $end
$var reg 1 M jr_ex $end
$var reg 1 N jar_ex $end
$var reg 32 O pc_mem[31:0] $end
$var reg 32 P address_mem[31:0] $end
$var reg 32 Q write_data_mem[31:0] $end
$var reg 1 R mem_write_mem $end
$var reg 1 S mem_to_reg_mem $end
$var reg 1 T reg_write_mem $end
$var reg 1 U pc_src_mem $end
$var reg 5 V write_reg_mem[4:0] $end
$var reg 32 W data_val_wb[31:0] $end
$var reg 32 X alu_val_wb[31:0] $end
$var reg 1 Y mem_to_reg_wb $end
$var reg 1 Z reg_write_wb $end
$var reg 5 [ write_reg_wb[4:0] $end
$scope module instfi $end
$var reg 1 \ clk $end
$var reg 1 ] pc_src $end
$var reg 1 ^ rstn $end
$var reg 10 _ iaddr[9:0] $end
$var reg 32 ` idata[31:0] $end
$var reg 32 a pc_if[31:0] $end
$var reg 32 b pc_id[31:0] $end
$var reg 32 c instruction[31:0] $end
$var reg 32 d pc[31:0] $end
$var reg 32 e next_pc[31:0] $end
$upscope $end
$scope module idi $end
$var reg 32 f pc_in[31:0] $end
$var reg 32 g instruction[31:0] $end
$var reg 32 h write_data[31:0] $end
$var reg 1 i clk $end
$var reg 1 j reg_we $end
$var reg 5 k write_reg[4:0] $end
$var reg 32 l pc_out[31:0] $end
$var reg 32 m alu_val[31:0] $end
$var reg 32 n reg_val[31:0] $end
$var reg 32 o imm[31:0] $end
$var reg 5 p alu_op[4:0] $end
$var reg 5 q rt[4:0] $end
$var reg 5 r rd[4:0] $end
$var reg 1 s reg_dest $end
$var reg 1 t reg_write_ex $end
$var reg 1 u alu_src $end
$var reg 1 v pc_src $end
$var reg 1 w mem_write $end
$var reg 1 x mem_to_reg_ex $end
$var reg 1 y jr $end
$var reg 1 z jar $end
$var reg 5 { sel_alu_val[4:0] $end
$var reg 5 | sel_reg_val[4:0] $end
$var reg 5 } rt_sig[4:0] $end
$var reg 32 !" alu_val_sig[31:0] $end
$var reg 32 "" reg_val_sig[31:0] $end
$scope module registerbanki $end
$var reg 1 #" clk $end
$var reg 32 $" din[31:0] $end
$var reg 32 %" douta[31:0] $end
$var reg 32 &" doutb[31:0] $end
$var reg 5 '" sela[4:0] $end
$var reg 5 (" selb[4:0] $end
$var reg 5 )" seld[4:0] $end
$var reg 1 *" we $end
$comment registers is not handled $end
$upscope $end
$upscope $end
$scope module exi $end
$var reg 32 +" imm[31:0] $end
$var reg 32 ," pc[31:0] $end
$var reg 32 -" alu_val[31:0] $end
$var reg 32 ." reg_val[31:0] $end
$var reg 5 /" alu_op[4:0] $end
$var reg 5 0" rt[4:0] $end
$var reg 5 1" rd[4:0] $end
$var reg 1 2" clk $end
$var reg 1 3" reg_dest $end
$var reg 1 4" reg_write_ex $end
$var reg 1 5" alu_src $end
$var reg 1 6" pc_src $end
$var reg 1 7" mem_write $end
$var reg 1 8" mem_to_reg_ex $end
$var reg 1 9" jr $end
$var reg 1 :" jar $end
$var reg 32 ;" pc_out[31:0] $end
$var reg 32 <" out_result[31:0] $end
$var reg 32 =" data[31:0] $end
$var reg 5 >" write_reg[4:0] $end
$var reg 1 ?" mem_write_out $end
$var reg 1 @" mem_to_reg_mem $end
$var reg 1 A" reg_write_mem $end
$var reg 1 B" pc_src_mem $end
$var reg 32 C" alu_result[31:0] $end
$var reg 32 D" mux_val[31:0] $end
$var reg 1 E" zero $end
$scope module alui $end
$var reg 32 F" opa[31:0] $end
$var reg 32 G" opb[31:0] $end
$var reg 32 H" result[31:0] $end
$var reg 5 I" op[4:0] $end
$var reg 1 J" zero $end
$upscope $end
$upscope $end
$scope module memi $end
$var reg 32 K" pc_in[31:0] $end
$var reg 32 L" address_in[31:0] $end
$var reg 32 M" write_data[31:0] $end
$var reg 1 N" clk $end
$var reg 1 O" mem_write $end
$var reg 1 P" mem_to_reg_in $end
$var reg 1 Q" reg_write_in $end
$var reg 1 R" pc_src_in $end
$var reg 5 S" write_reg[4:0] $end
$var reg 32 T" read_data_out[31:0] $end
$var reg 32 U" adress_out[31:0] $end
$var reg 32 V" pc_out[31:0] $end
$var reg 1 W" mem_to_reg_wb $end
$var reg 1 X" reg_write_wb $end
$var reg 1 Y" pc_src_if $end
$var reg 5 Z" write_reg_out[4:0] $end
$var reg 1 [" dnwe $end
$var reg 10 \" daddr[9:0] $end
$var reg 32 ]" ddatai[31:0] $end
$var reg 32 ^" ddatao[31:0] $end
$var reg 1 _" nwe $end
$var reg 32 `" read_data[31:0] $end
$var reg 16 a" address[15:0] $end
$var reg 5 b" sel_alu_val[4:0] $end
$var reg 5 c" sel_reg_val[4:0] $end
$comment fileio_in is not handled $end
$upscope $end
$scope module wbi $end
$var reg 32 d" data_val[31:0] $end
$var reg 32 e" alu_val[31:0] $end
$var reg 1 f" clk $end
$var reg 1 g" mem_to_reg_wb $end
$var reg 1 h" reg_write_wb $end
$var reg 5 i" write_reg_in[4:0] $end
$var reg 5 j" write_reg_out[4:0] $end
$var reg 1 k" write_enable_out $end
$var reg 32 l" write_data[31:0] $end
$upscope $end
$upscope $end
$upscope $end
$enddefinitions $end
#0
0!
0"
U#
U$
b0000000000 %
bUUUUUUUUUU &
b00001000001000010000000000000001 '
b00000000000000000000000000000000 (
bUUUUUUUUUUUUUUUUUUUUUUUUUUUUUUUU )
bUUUUUUUUUUUUUUUUUUUUUUUUUUUUUUUU *
b0000000000 +
b00001000001000010000000000000001 ,
U-
bUUUUUUUUUU .
bUUUUUUUUUUUUUUUUUUUUUUUUUUUUUUUU /
b00000000000000000000000000000000 0
01
02
b0000000000 3
b00001000001000010000000000000001 4
U5
bUUUUUUUUUU 6
b00000000000000000000000000000000 7
bUUUUUUUUUUUUUUUUUUUUUUUUUUUUUUUU 8
bUUUUUUUUUUUUUUUUUUUUUUUUUUUUUUUU 9
U:
bUUUUUUUUUUUUUUUUUUUUUUUUUUUUUUUU ;
bUUUUUUUUUUUUUUUUUUUUUUUUUUUUUUUU <
bUUUUUUUUUUUUUUUUUUUUUUUUUUUUUUUU =
U>
bUUUUU ?
bUUUUUUUUUUUUUUUUUUUUUUUUUUUUUUUU @
bUUUUUUUUUUUUUUUUUUUUUUUUUUUUUUUU A
bUUUUUUUUUUUUUUUUUUUUUUUUUUUUUUUU B
bUUUUUUUUUUUUUUUUUUUUUUUUUUUUUUUU C
bUUUUU D
bUUUUU E
bUUUUU F
UG
UH
UI
UJ
UK
UL
UM
UN
bUUUUUUUUUUUUUUUUUUUUUUUUUUUUUUUU O
bUUUUUUUUUUUUUUUUUUUUUUUUUUUUUUUU P
bUUUUUUUUUUUUUUUUUUUUUUUUUUUUUUUU Q
UR
US
UT
UU
bUUUUU V
bUUUUUUUUUUUUUUUUUUUUUUUUUUUUUUUU W
bUUUUUUUUUUUUUUUUUUUUUUUUUUUUUUUU X
UY
UZ
bUUUUU [
0\
U]
0^
b0000000000 _
b00001000001000010000000000000001 `
bUUUUUUUUUUUUUUUUUUUUUUUUUUUUUUUU a
bUUUUUUUUUUUUUUUUUUUUUUUUUUUUUUUU b
bUUUUUUUUUUUUUUUUUUUUUUUUUUUUUUUU c
b00000000000000000000000000000000 d
b00000000000000000000000000000001 e
bUUUUUUUUUUUUUUUUUUUUUUUUUUUUUUUU f
bUUUUUUUUUUUUUUUUUUUUUUUUUUUUUUUU g
bUUUUUUUUUUUUUUUUUUUUUUUUUUUUUUUU h
0i
Uj
bUUUUU k
bUUUUUUUUUUUUUUUUUUUUUUUUUUUUUUUU l
bUUUUUUUUUUUUUUUUUUUUUUUUUUUUUUUU m
bUUUUUUUUUUUUUUUUUUUUUUUUUUUUUUUU n
bUUUUUUUUUUUUUUUUUUUUUUUUUUUUUUUU o
bUUUUU p
bUUUUU q
bUUUUU r
Us
Ut
Uu
Uv
Uw
Ux
Uy
Uz
bUUUUU {
bUUUUU |
bUUUUU }
b00000000000000000000000000000000 !"
b00000000000000000000000000000000 ""
0#"
bUUUUUUUUUUUUUUUUUUUUUUUUUUUUUUUU $"
b00000000000000000000000000000000 %"
b00000000000000000000000000000000 &"
bUUUUU '"
bUUUUU ("
bUUUUU )"
U*"
bUUUUUUUUUUUUUUUUUUUUUUUUUUUUUUUU +"
bUUUUUUUUUUUUUUUUUUUUUUUUUUUUUUUU ,"
bUUUUUUUUUUUUUUUUUUUUUUUUUUUUUUUU -"
bUUUUUUUUUUUUUUUUUUUUUUUUUUUUUUUU ."
bUUUUU /"
bUUUUU 0"
bUUUUU 1"
02"
U3"
U4"
U5"
U6"
U7"
U8"
U9"
U:"
bUUUUUUUUUUUUUUUUUUUUUUUUUUUUUUUU ;"
bUUUUUUUUUUUUUUUUUUUUUUUUUUUUUUUU <"
bUUUUUUUUUUUUUUUUUUUUUUUUUUUUUUUU ="
bUUUUU >"
U?"
U@"
UA"
UB"
bUUUUUUUUUUUUUUUUUUUUUUUUUUUUUUUU C"
bUUUUUUUUUUUUUUUUUUUUUUUUUUUUUUUU D"
0E"
bUUUUUUUUUUUUUUUUUUUUUUUUUUUUUUUU F"
bUUUUUUUUUUUUUUUUUUUUUUUUUUUUUUUU G"
bUUUUUUUUUUUUUUUUUUUUUUUUUUUUUUUU H"
bUUUUU I"
0J"
bUUUUUUUUUUUUUUUUUUUUUUUUUUUUUUUU K"
bUUUUUUUUUUUUUUUUUUUUUUUUUUUUUUUU L"
bUUUUUUUUUUUUUUUUUUUUUUUUUUUUUUUU M"
0N"
UO"
UP"
UQ"
UR"
bUUUUU S"
bUUUUUUUUUUUUUUUUUUUUUUUUUUUUUUUU T"
bUUUUUUUUUUUUUUUUUUUUUUUUUUUUUUUU U"
bUUUUUUUUUUUUUUUUUUUUUUUUUUUUUUUU V"
UW"
UX"
UY"
bUUUUU Z"
U["
bUUUUUUUUUU \"
b00000000000000000000000000000000 ]"
bUUUUUUUUUUUUUUUUUUUUUUUUUUUUUUUU ^"
1_"
bUUUUUUUUUUUUUUUUUUUUUUUUUUUUUUUU `"
bUUUUUUUUUUUUUUUU a"
bUUUUU b"
bUUUUU c"
bUUUUUUUUUUUUUUUUUUUUUUUUUUUUUUUU d"
bUUUUUUUUUUUUUUUUUUUUUUUUUUUUUUUU e"
0f"
Ug"
Uh"
bUUUUU i"
bUUUUU j"
Uk"
bUUUUUUUUUUUUUUUUUUUUUUUUUUUUUUUU l"
#5000000
1"
12
1^
#10000000
#20000000
1!
b0000000001 %
b11111100000000000000000000000000 '
b0000000001 +
b11111100000000000000000000000000 ,
11
b0000000001 3
b11111100000000000000000000000000 4
bXXXXXXXXXXXXXXXXXXXXXXXXXXXXXXXX 9
0:
b00000000000000000000000000000100 ;
b00001000001000010000000000000001 <
b00000000000000000000000000000000 =
b00000000000000000000000000000000 B
b00000000000000000000000000000000 C
b00001 D
0G
0H
0I
0J
0K
0L
0M
0N
bXXXXXXXXXXXXXXXXXXXXXXXXXXXXXXXX O
0U
b00000000000000000000000000000000 W
1\
0]
b0000000001 _
b11111100000000000000000000000000 `
bXXXXXXXXXXXXXXXXXXXXXXXXXXXXXXXX a
b00000000000000000000000000000100 b
b00001000001000010000000000000001 c
b00000000000000000000000000000001 d
b00000000000000000000000000000010 e
b00000000000000000000000000000100 f
b00001000001000010000000000000001 g
b00000000000000000000000000000000 h
1i
b00000000000000000000000000000000 m
b00000000000000000000000000000000 n
b00001 p
0s
0t
0u
0v
0w
0x
0y
0z
b00001 {
b00001 |
b00001 }
1#"
b00000000000000000000000000000000 $"
b00001 '"
b00001 ("
b00000000000000000000000000000000 -"
b00000000000000000000000000000000 ."
b00001 /"
12"
03"
04"
05"
06"
07"
08"
09"
0:"
bXXXXXXXXXXXXXXXXXXXXXXXXXXXXXXXX ;"
0B"
b00000000000000000000000000000000 C"
b00000000000000000000000000000000 D"
1E"
b00000000000000000000000000000000 F"
b00000000000000000000000000000000 G"
b00000000000000000000000000000000 H"
b00001 I"
1J"
bXXXXXXXXXXXXXXXXXXXXXXXXXXXXXXXX K"
1N"
0R"
b00000000000000000000000000000000 T"
bXXXXXXXXXXXXXXXXXXXXXXXXXXXXXXXX V"
0Y"
b00000000000000000000000000000000 d"
1f"
b00000000000000000000000000000000 l"
#30000000
0!
01
0\
0i
0#"
02"
0N"
0f"
#40000000
1!
1$
b0000000010 %
b0000000000 &
b00000000000000000000000000000000 *
b0000000010 +
1-
b0000000000 .
b00000000000000000000000000000000 /
11
b0000000010 3
15
b0000000000 6
b00000000000000000000000000000000 8
b00000000000000000000000000000101 ;
b11111100000000000000000000000000 <
b00000000000000000000000000000001 @
b00000000000000000000000000000100 A
b10001 D
b00001 E
b00000 F
1H
1I
b00000000000000000000000000000000 P
b00000000000000000000000000000000 Q
0R
0S
0T
1\
b0000000010 _
b00000000000000000000000000000101 b
b11111100000000000000000000000000 c
b00000000000000000000000000000010 d
b00000000000000000000000000000011 e
b00000000000000000000000000000101 f
b11111100000000000000000000000000 g
1i
b00000000000000000000000000000100 l
b00000000000000000000000000000001 o
b10001 p
b00001 q
b00000 r
1t
1u
b00000 {
b00000 |
b00000 }
1#"
b00000 '"
b00000 ("
b00000000000000000000000000000001 +"
b00000000000000000000000000000100 ,"
b10001 /"
b00001 0"
b00000 1"
12"
14"
15"
b00000000000000000000000000000000 <"
b00000000000000000000000000000000 ="
0?"
0@"
0A"
b00000000000000000000000000000001 C"
b00000000000000000000000000000001 D"
0E"
b00000000000000000000000000000001 G"
b00000000000000000000000000000001 H"
b10001 I"
0J"
b00000000000000000000000000000000 L"
b00000000000000000000000000000000 M"
1N"
0O"
0P"
0Q"
1["
b0000000000 \"
b00000000000000000000000000000000 ^"
1f"
#50000000
0!
01
0\
0i
0#"
02"
0N"
0f"
#60000000
1!
b0000000011 %
b000000000X &
b0000000011 +
b000000000X .
11
b0000000011 3
b000000000X 6
b00000000000000000000000000000101 9
b00000000000000000000000000000110 ;
0>
b00000000000000000000000000000000 @
b00000000000000000000000000000101 A
b00001 D
b00000 E
0H
0I
b00000000000000000000000000000101 O
b00000000000000000000000000000001 P
1T
b00001 V
b00000000000000000000000000000000 X
0Y
0Z
1\
b0000000011 _
b00000000000000000000000000000101 a
b00000000000000000000000000000110 b
b00000000000000000000000000000011 d
b00000000000000000000000000000100 e
b00000000000000000000000000000110 f
1i
0j
b00000000000000000000000000000101 l
b00000000000000000000000000000000 o
b00001 p
b00000 q
0t
0u
1#"
0*"
b00000000000000000000000000000000 +"
b00000000000000000000000000000101 ,"
b00001 /"
b00000 0"
12"
04"
05"
b00000000000000000000000000000101 ;"
b00000000000000000000000000000001 <"
b00001 >"
1A"
b00000000000000000000000000000000 C"
b00000000000000000000000000000000 D"
1E"
b00000000000000000000000000000000 G"
b00000000000000000000000000000000 H"
b00001 I"
1J"
b00000000000000000000000000000101 K"
b00000000000000000000000000000001 L"
1N"
1Q"
b00001 S"
b00000000000000000000000000000000 U"
b00000000000000000000000000000101 V"
0W"
0X"
b000000000X \"
b00000000000000000000000000000000 e"
1f"
0g"
0h"
0k"
#70000000
0!
01
0\
0i
0#"
02"
0N"
0f"
#80000000
1!
b0000000100 %
b0000000000 &
b00000100001000010000000000000000 '
b0000000100 +
b00000100001000010000000000000000 ,
b0000000000 .
11
b0000000100 3
b00000100001000010000000000000000 4
b0000000000 6
b00000000000000000000000000000111 ;
b00000000000000000000000000000001 =
1>
b00001 ?
b00000000000000000000000000000110 A
b00000000000000000000000000000000 P
0T
b00000 V
b00000000000000000000000000000001 X
1Z
b00001 [
1\
b0000000100 _
b00000100001000010000000000000000 `
b00000000000000000000000000000111 b
b00000000000000000000000000000100 d
b00000000000000000000000000000101 e
b00000000000000000000000000000111 f
b00000000000000000000000000000001 h
1i
1j
b00001 k
b00000000000000000000000000000110 l
1#"
b00000000000000000000000000000001 $"
b00001 )"
1*"
b00000000000000000000000000000110 ,"
12"
b00000000000000000000000000000000 <"
b00000 >"
0A"
b00000000000000000000000000000000 L"
1N"
0Q"
b00000 S"
b00000000000000000000000000000001 U"
1X"
b00001 Z"
b0000000000 \"
b00000000000000000000000000000001 e"
1f"
1h"
b00001 i"
b00001 j"
1k"
b00000000000000000000000000000001 l"
#90000000
0!
01
0\
0i
0#"
02"
0N"
0f"
#100000000
1!
b0000000101 %
b11111100000000000000000000000000 '
b0000000101 +
b11111100000000000000000000000000 ,
11
b0000000101 3
b11111100000000000000000000000000 4
b00000000000000000000000000000110 9
b00000000000000000000000000001000 ;
b00000100001000010000000000000000 <
b00000000000000000000000000000000 =
0>
b00000 ?
b00000000000000000000000000000111 A
b00000000000000000000000000000110 O
b00000000000000000000000000000000 X
0Z
b00000 [
1\
b0000000101 _
b11111100000000000000000000000000 `
b00000000000000000000000000000110 a
b00000000000000000000000000001000 b
b00000100001000010000000000000000 c
b00000000000000000000000000000101 d
b00000000000000000000000000000110 e
b00000000000000000000000000001000 f
b00000100001000010000000000000000 g
b00000000000000000000000000000000 h
1i
0j
b00000 k
b00000000000000000000000000000111 l
b00001 {
b00001 |
b00001 }
b00000000000000000000000000000001 !"
b00000000000000000000000000000001 ""
1#"
b00000000000000000000000000000000 $"
b00000000000000000000000000000001 %"
b00000000000000000000000000000001 &"
b00001 '"
b00001 ("
b00000 )"
0*"
b00000000000000000000000000000111 ,"
12"
b00000000000000000000000000000110 ;"
b00000000000000000000000000000110 K"
1N"
b00000000000000000000000000000000 U"
b00000000000000000000000000000110 V"
0X"
b00000 Z"
b00000000000000000000000000000000 e"
1f"
0h"
b00000 i"
b00000 j"
0k"
b00000000000000000000000000000000 l"
#110000000
0!
01
0\
0i
0#"
02"
0N"
0f"
#120000000
1!
b0000000110 %
b0000000110 +
11
b0000000110 3
b00000000000000000000000000000111 9
b00000000000000000000000000001001 ;
b11111100000000000000000000000000 <
b00000000000000000000000000001000 A
b00000000000000000000000000000001 B
b00000000000000000000000000000001 C
b10000 D
b00001 E
1H
1I
b00000000000000000000000000000111 O
1\
b0000000110 _
b00000000000000000000000000000111 a
b00000000000000000000000000001001 b
b11111100000000000000000000000000 c
b00000000000000000000000000000110 d
b00000000000000000000000000000111 e
b00000000000000000000000000001001 f
b11111100000000000000000000000000 g
1i
b00000000000000000000000000001000 l
b00000000000000000000000000000001 m
b00000000000000000000000000000001 n
b10000 p
b00001 q
1t
1u
b00000 {
b00000 |
b00000 }
b00000000000000000000000000000000 !"
b00000000000000000000000000000000 ""
1#"
b00000000000000000000000000000000 %"
b00000000000000000000000000000000 &"
b00000 '"
b00000 ("
b00000000000000000000000000001000 ,"
b00000000000000000000000000000001 -"
b00000000000000000000000000000001 ."
b10000 /"
b00001 0"
12"
14"
15"
b00000000000000000000000000000111 ;"
b00000000000000000000000000000001 C"
0E"
b00000000000000000000000000000001 F"
b00000000000000000000000000000001 H"
b10000 I"
0J"
b00000000000000000000000000000111 K"
1N"
b00000000000000000000000000000111 V"
1f"
#130000000
0!
01
0\
0i
0#"
02"
0N"
0f"
#140000000
1!
b0000000111 %
b000000000X &
b00000000000000000000000000000001 *
b0000000111 +
b000000000X .
b00000000000000000000000000000001 /
11
b0000000111 3
b000000000X 6
b00000000000000000000000000000001 8
b00000000000000000000000000001000 9
b00000000000000000000000000001010 ;
b00000000000000000000000000001001 A
b00000000000000000000000000000000 B
b00000000000000000000000000000000 C
b00001 D
b00000 E
0H
0I
b00000000000000000000000000001000 O
b00000000000000000000000000000001 P
b00000000000000000000000000000001 Q
1T
b00001 V
1\
b0000000111 _
b00000000000000000000000000001000 a
b00000000000000000000000000001010 b
b00000000000000000000000000000111 d
b00000000000000000000000000001000 e
b00000000000000000000000000001010 f
1i
b00000000000000000000000000001001 l
b00000000000000000000000000000000 m
b00000000000000000000000000000000 n
b00001 p
b00000 q
0t
0u
1#"
b00000000000000000000000000001001 ,"
b00000000000000000000000000000000 -"
b00000000000000000000000000000000 ."
b00001 /"
b00000 0"
12"
04"
05"
b00000000000000000000000000001000 ;"
b00000000000000000000000000000001 <"
b00000000000000000000000000000001 ="
b00001 >"
1A"
b00000000000000000000000000000000 C"
1E"
b00000000000000000000000000000000 F"
b00000000000000000000000000000000 H"
b00001 I"
1J"
b00000000000000000000000000001000 K"
b00000000000000000000000000000001 L"
b00000000000000000000000000000001 M"
1N"
1Q"
b00001 S"
b00000000000000000000000000001000 V"
b000000000X \"
b00000000000000000000000000000001 ^"
1f"
#150000000
0!
01
0\
0i
0#"
02"
0N"
0f"
#160000000
1!
b0000001000 %
b0000000000 &
b00000000001000010001000000000000 '
b00000000000000000000000000000000 *
b0000001000 +
b00000000001000010001000000000000 ,
b0000000000 .
b00000000000000000000000000000000 /
11
b0000001000 3
b00000000001000010001000000000000 4
b0000000000 6
b00000000000000000000000000000000 8
b00000000000000000000000000001001 9
b00000000000000000000000000001011 ;
b00000000000000000000000000000001 =
1>
b00001 ?
b00000000000000000000000000001010 A
b00000000000000000000000000001001 O
b00000000000000000000000000000000 P
b00000000000000000000000000000000 Q
0T
b00000 V
b00000000000000000000000000000001 X
1Z
b00001 [
1\
b0000001000 _
b00000000001000010001000000000000 `
b00000000000000000000000000001001 a
b00000000000000000000000000001011 b
b00000000000000000000000000001000 d
b00000000000000000000000000001001 e
b00000000000000000000000000001011 f
b00000000000000000000000000000001 h
1i
1j
b00001 k
b00000000000000000000000000001010 l
1#"
b00000000000000000000000000000001 $"
b00001 )"
1*"
b00000000000000000000000000001010 ,"
12"
b00000000000000000000000000001001 ;"
b00000000000000000000000000000000 <"
b00000000000000000000000000000000 ="
b00000 >"
0A"
b00000000000000000000000000001001 K"
b00000000000000000000000000000000 L"
b00000000000000000000000000000000 M"
1N"
0Q"
b00000 S"
b00000000000000000000000000000001 U"
b00000000000000000000000000001001 V"
1X"
b00001 Z"
b0000000000 \"
b00000000000000000000000000000000 ^"
b00000000000000000000000000000001 e"
1f"
1h"
b00001 i"
b00001 j"
1k"
b00000000000000000000000000000001 l"
#170000000
0!
01
0\
0i
0#"
02"
0N"
0f"
#180000000
1!
b0000001001 %
b11111100000000000000000000000000 '
b0000001001 +
b11111100000000000000000000000000 ,
11
b0000001001 3
b11111100000000000000000000000000 4
b00000000000000000000000000001010 9
b00000000000000000000000000001100 ;
b00000000001000010001000000000000 <
b00000000000000000000000000000000 =
0>
b00000 ?
b00000000000000000000000000001011 A
b00000000000000000000000000001010 O
b00000000000000000000000000000000 X
0Z
b00000 [
1\
b0000001001 _
b11111100000000000000000000000000 `
b00000000000000000000000000001010 a
b00000000000000000000000000001100 b
b00000000001000010001000000000000 c
b00000000000000000000000000001001 d
b00000000000000000000000000001010 e
b00000000000000000000000000001100 f
b00000000001000010001000000000000 g
b00000000000000000000000000000000 h
1i
0j
b00000 k
b00000000000000000000000000001011 l
b00001 {
b00001 |
b00001 }
b00000000000000000000000000000001 !"
b00000000000000000000000000000001 ""
1#"
b00000000000000000000000000000000 $"
b00000000000000000000000000000001 %"
b00000000000000000000000000000001 &"
b00001 '"
b00001 ("
b00000 )"
0*"
b00000000000000000000000000001011 ,"
12"
b00000000000000000000000000001010 ;"
b00000000000000000000000000001010 K"
1N"
b00000000000000000000000000000000 U"
b00000000000000000000000000001010 V"
0X"
b00000 Z"
b00000000000000000000000000000000 e"
1f"
0h"
b00000 i"
b00000 j"
0k"
b00000000000000000000000000000000 l"
#190000000
0!
01
0\
0i
0#"
02"
0N"
0f"
#200000000
1!
b0000001010 %
b0000001010 +
11
b0000001010 3
b00000000000000000000000000001011 9
b00000000000000000000000000001101 ;
b11111100000000000000000000000000 <
b00000000000000000001000000000000 @
b00000000000000000000000000001100 A
b00000000000000000000000000000001 B
b00000000000000000000000000000001 C
b00001 E
b00010 F
1G
1H
b00000000000000000000000000001011 O
1\
b0000001010 _
b00000000000000000000000000001011 a
b00000000000000000000000000001101 b
b11111100000000000000000000000000 c
b00000000000000000000000000001010 d
b00000000000000000000000000001011 e
b00000000000000000000000000001101 f
b11111100000000000000000000000000 g
1i
b00000000000000000000000000001100 l
b00000000000000000000000000000001 m
b00000000000000000000000000000001 n
b00000000000000000001000000000000 o
b00001 q
b00010 r
1s
1t
b00000 {
b00000 |
b00000 }
b00000000000000000000000000000000 !"
b00000000000000000000000000000000 ""
1#"
b00000000000000000000000000000000 %"
b00000000000000000000000000000000 &"
b00000 '"
b00000 ("
b00000000000000000001000000000000 +"
b00000000000000000000000000001100 ,"
b00000000000000000000000000000001 -"
b00000000000000000000000000000001 ."
b00001 0"
b00010 1"
12"
13"
14"
b00000000000000000000000000001011 ;"
b00000000000000000000000000000010 C"
b00000000000000000000000000000001 D"
0E"
b00000000000000000000000000000001 F"
b00000000000000000000000000000001 G"
b00000000000000000000000000000010 H"
0J"
b00000000000000000000000000001011 K"
1N"
b00000000000000000000000000001011 V"
1f"
#210000000
0!
01
0\
0i
0#"
02"
0N"
0f"
#220000000
1!
b0000001011 %
b00000000X0 &
b00000000000000000000000000000001 *
b0000001011 +
b00000000X0 .
b00000000000000000000000000000001 /
11
b0000001011 3
b00000000X0 6
b00000000000000000000000000000001 8
b00000000000000000001000000001100 9
b00000000000000000000000000001110 ;
b00000000000000000000000000000000 @
b00000000000000000000000000001101 A
b00000000000000000000000000000000 B
b00000000000000000000000000000000 C
b00000 E
b00000 F
0G
0H
b00000000000000000001000000001100 O
b00000000000000000000000000000010 P
b00000000000000000000000000000001 Q
1T
b00010 V
1\
b0000001011 _
b00000000000000000001000000001100 a
b00000000000000000000000000001110 b
b00000000000000000000000000001011 d
b00000000000000000000000000001100 e
b00000000000000000000000000001110 f
1i
b00000000000000000000000000001101 l
b00000000000000000000000000000000 m
b00000000000000000000000000000000 n
b00000000000000000000000000000000 o
b00000 q
b00000 r
0s
0t
1#"
b00000000000000000000000000000000 +"
b00000000000000000000000000001101 ,"
b00000000000000000000000000000000 -"
b00000000000000000000000000000000 ."
b00000 0"
b00000 1"
12"
03"
04"
b00000000000000000001000000001100 ;"
b00000000000000000000000000000010 <"
b00000000000000000000000000000001 ="
b00010 >"
1A"
b00000000000000000000000000000000 C"
b00000000000000000000000000000000 D"
1E"
b00000000000000000000000000000000 F"
b00000000000000000000000000000000 G"
b00000000000000000000000000000000 H"
1J"
b00000000000000000001000000001100 K"
b00000000000000000000000000000010 L"
b00000000000000000000000000000001 M"
1N"
1Q"
b00010 S"
b00000000000000000001000000001100 V"
b00000000X0 \"
b00000000000000000000000000000001 ^"
1f"
#230000000
0!
01
0\
0i
0#"
02"
0N"
0f"
